Lazy sampling • lazysample
…
Leave-one-out and leave-p-out cross validation functions:

crossv_loo(mtcars)

## # A tibble: 32 x 2
##            train          test
##           <list>        <list>
##  1 <lazy_sample> <lazy_sample>
##  2 <lazy_sample> <lazy_sample>
##  3 <lazy_sample> <lazy_sample>
##  4 <lazy_sample> <lazy_sample>
##  5 <lazy_sample> <lazy_sample>
##  6 <lazy_sample> <lazy_sample>
##  7 <lazy_sample> <lazy_sample>
##  8 <lazy_sample> <lazy_sample>
##  9 <lazy_sample> <lazy_sample>
## 10 <lazy_sample> <lazy_sample>
## # ... with 22 more rows

crossv_lpo(mtcars, p = 2)

## # A tibble: 496 x 2
##            train          test
##           <list>        <list>
##  1 <lazy_sample> <lazy_sample>
##  2 <lazy_sample> <lazy_sample>
##  3 <lazy_sample> <lazy_sample>
##  4 <lazy_sample> <lazy_sample>
##  5 <lazy_sample> <lazy_sample>
##  6 <lazy_sample> <lazy_sample>
##  7 <lazy_sample> <lazy_sample>
##  8 <lazy_sample> <lazy_sample>
##  9 <lazy_sample> <lazy_sample>
## 10 <lazy_sample> <lazy_sample>
## # ... with 486 more rows

crossv_lpo_n(32, p = 3)

## # A tibble: 4,960 x 2
##         train      test
##        <list>    <list>
##  1 <int [29]> <int [3]>
##  2 <int [29]> <int [3]>
##  3 <int [29]> <int [3]>
##  4 <int [29]> <int [3]>
##  5 <int [29]> <int [3]>
##  6 <int [29]> <int [3]>
##  7 <int [29]> <int [3]>
##  8 <int [29]> <int [3]>
##  9 <int [29]> <int [3]>
## 10 <int [29]> <int [3]>
## # ... with 4,950 more rows
…
